epoch=0 train=506.188245132 valid=386.837629393 test=399.559433625
epoch=1 train=443.04539086 valid=394.540346596 test=406.528297091
epoch=2 train=427.16362741 valid=367.891574217 test=378.877383706
epoch=3 train=427.289589335 valid=367.384219106 test=379.609396601
epoch=4 train=408.893590794 valid=354.005060932 test=365.451188519
epoch=5 train=382.058719641 valid=317.240296438 test=328.344451301
epoch=6 train=354.723621147 valid=309.980992998 test=320.896768161
epoch=7 train=344.742002132 valid=302.365968447 test=312.78496472
epoch=8 train=333.69698332 valid=291.25068447 test=301.521417626
epoch=9 train=325.962685086 valid=283.959408304 test=294.250441735
epoch=10 train=318.065700316 valid=276.159823273 test=286.603312861
epoch=11 train=304.815119338 valid=261.834028313 test=271.281792348
epoch=12 train=283.884156795 valid=238.515380967 test=247.648334142
epoch=13 train=262.160103604 valid=226.74741725 test=235.030351516
epoch=14 train=244.958426191 valid=208.995903929 test=216.686882437
epoch=15 train=230.692287577 valid=199.369035128 test=206.60765673
epoch=16 train=220.498347817 valid=192.87760785 test=199.995009912
epoch=17 train=211.760056545 valid=187.88182545 test=195.279460549
epoch=18 train=205.474015965 valid=182.141612904 test=189.244915264
epoch=19 train=200.317235785 valid=177.837214405 test=185.005835458
epoch=20 train=199.465817946 valid=175.305375305 test=182.491705025
epoch=21 train=190.325689119 valid=171.273651444 test=178.501975679
epoch=22 train=186.363659864 valid=169.760688869 test=176.96616002
epoch=23 train=180.405766968 valid=161.473113884 test=168.369483371
epoch=24 train=174.479091705 valid=157.077988631 test=163.726577948
epoch=25 train=168.372712591 valid=153.313619116 test=159.873227554
epoch=26 train=162.221974632 valid=146.784420025 test=153.213356275
epoch=27 train=156.65219732 valid=143.364850473 test=149.95386856
epoch=28 train=152.595047684 valid=139.281924602 test=145.494715287
epoch=29 train=148.495396036 valid=136.342636836 test=142.369983252
epoch=30 train=144.615440808 valid=133.749121542 test=139.718383189
epoch=31 train=140.96722147 valid=130.330254731 test=135.892497957
epoch=32 train=137.307132629 valid=126.522148784 test=132.133434774
epoch=33 train=134.176084007 valid=124.768753497 test=130.465692606
epoch=34 train=130.695974999 valid=122.586936584 test=128.070074433
epoch=35 train=127.67854799 valid=120.617607804 test=126.070790968
epoch=36 train=124.898883091 valid=118.150537786 test=123.479256002
epoch=37 train=122.17342138 valid=116.257672061 test=121.618171908
epoch=38 train=120.011946187 valid=115.071038426 test=120.349739025
epoch=39 train=118.014409129 valid=113.393836264 test=118.66417529
epoch=40 train=115.801746031 valid=112.368299123 test=117.581737208
epoch=41 train=114.080375215 valid=109.954509566 test=115.228206303
epoch=42 train=112.036488115 valid=108.884582527 test=114.206767768
epoch=43 train=110.454021571 valid=107.510471278 test=112.624864808
epoch=44 train=108.633852629 valid=106.531997411 test=111.650205814
epoch=45 train=107.041308532 valid=105.569816657 test=110.714539877
epoch=46 train=105.713838677 valid=104.912901852 test=110.234439255
epoch=47 train=104.193156654 valid=103.567310337 test=108.797103732
epoch=48 train=104.455296321 valid=102.99746454 test=108.22731614
epoch=49 train=101.819638056 valid=102.669342972 test=108.029069653